[{
	"Bukrs": "Bukrs 1",
	"Butxt": "Butxt 1",
	"Ort01": "Ort01 1",
	"Waers": "Waers 1",
	"__metadata": {
		"uri": "HT001Set('Bukrs%201')",
		"type": "ZQM_INSPLOT_SRV.HT001"
	}
}, {
	"Bukrs": "Bukrs 2",
	"Butxt": "Butxt 2",
	"Ort01": "Ort01 2",
	"Waers": "Waers 2",
	"__metadata": {
		"uri": "HT001Set('Bukrs%202')",
		"type": "ZQM_INSPLOT_SRV.HT001"
	}
}, {
	"Bukrs": "Bukrs 3",
	"Butxt": "Butxt 3",
	"Ort01": "Ort01 3",
	"Waers": "Waers 3",
	"__metadata": {
		"uri": "HT001Set('Bukrs%203')",
		"type": "ZQM_INSPLOT_SRV.HT001"
	}
}, {
	"Bukrs": "Bukrs 4",
	"Butxt": "Butxt 4",
	"Ort01": "Ort01 4",
	"Waers": "Waers 4",
	"__metadata": {
		"uri": "HT001Set('Bukrs%204')",
		"type": "ZQM_INSPLOT_SRV.HT001"
	}
}, {
	"Bukrs": "Bukrs 5",
	"Butxt": "Butxt 5",
	"Ort01": "Ort01 5",
	"Waers": "Waers 5",
	"__metadata": {
		"uri": "HT001Set('Bukrs%205')",
		"type": "ZQM_INSPLOT_SRV.HT001"
	}
}, {
	"Bukrs": "Bukrs 6",
	"Butxt": "Butxt 6",
	"Ort01": "Ort01 6",
	"Waers": "Waers 6",
	"__metadata": {
		"uri": "HT001Set('Bukrs%206')",
		"type": "ZQM_INSPLOT_SRV.HT001"
	}
}, {
	"Bukrs": "Bukrs 7",
	"Butxt": "Butxt 7",
	"Ort01": "Ort01 7",
	"Waers": "Waers 7",
	"__metadata": {
		"uri": "HT001Set('Bukrs%207')",
		"type": "ZQM_INSPLOT_SRV.HT001"
	}
}, {
	"Bukrs": "Bukrs 8",
	"Butxt": "Butxt 8",
	"Ort01": "Ort01 8",
	"Waers": "Waers 8",
	"__metadata": {
		"uri": "HT001Set('Bukrs%208')",
		"type": "ZQM_INSPLOT_SRV.HT001"
	}
}, {
	"Bukrs": "Bukrs 9",
	"Butxt": "Butxt 9",
	"Ort01": "Ort01 9",
	"Waers": "Waers 9",
	"__metadata": {
		"uri": "HT001Set('Bukrs%209')",
		"type": "ZQM_INSPLOT_SRV.HT001"
	}
}, {
	"Bukrs": "Bukrs 10",
	"Butxt": "Butxt 10",
	"Ort01": "Ort01 10",
	"Waers": "Waers 10",
	"__metadata": {
		"uri": "HT001Set('Bukrs%2010')",
		"type": "ZQM_INSPLOT_SRV.HT001"
	}
}]