[{
	"Matnr": "Matnr 1",
	"Werks": "Werks 1",
	"Charg": "Charg 1",
	"__metadata": {
		"uri": "Mch1VbobMobSet(Matnr='Matnr%201',Werks='Werks%201')",
		"type": "ZQM_INSPLOT_SRV.Mch1VbobMob"
	}
}, {
	"Matnr": "Matnr 2",
	"Werks": "Werks 2",
	"Charg": "Charg 2",
	"__metadata": {
		"uri": "Mch1VbobMobSet(Matnr='Matnr%202',Werks='Werks%202')",
		"type": "ZQM_INSPLOT_SRV.Mch1VbobMob"
	}
}, {
	"Matnr": "Matnr 3",
	"Werks": "Werks 3",
	"Charg": "Charg 3",
	"__metadata": {
		"uri": "Mch1VbobMobSet(Matnr='Matnr%203',Werks='Werks%203')",
		"type": "ZQM_INSPLOT_SRV.Mch1VbobMob"
	}
}, {
	"Matnr": "Matnr 4",
	"Werks": "Werks 4",
	"Charg": "Charg 4",
	"__metadata": {
		"uri": "Mch1VbobMobSet(Matnr='Matnr%204',Werks='Werks%204')",
		"type": "ZQM_INSPLOT_SRV.Mch1VbobMob"
	}
}, {
	"Matnr": "Matnr 5",
	"Werks": "Werks 5",
	"Charg": "Charg 5",
	"__metadata": {
		"uri": "Mch1VbobMobSet(Matnr='Matnr%205',Werks='Werks%205')",
		"type": "ZQM_INSPLOT_SRV.Mch1VbobMob"
	}
}, {
	"Matnr": "Matnr 6",
	"Werks": "Werks 6",
	"Charg": "Charg 6",
	"__metadata": {
		"uri": "Mch1VbobMobSet(Matnr='Matnr%206',Werks='Werks%206')",
		"type": "ZQM_INSPLOT_SRV.Mch1VbobMob"
	}
}, {
	"Matnr": "Matnr 7",
	"Werks": "Werks 7",
	"Charg": "Charg 7",
	"__metadata": {
		"uri": "Mch1VbobMobSet(Matnr='Matnr%207',Werks='Werks%207')",
		"type": "ZQM_INSPLOT_SRV.Mch1VbobMob"
	}
}, {
	"Matnr": "Matnr 8",
	"Werks": "Werks 8",
	"Charg": "Charg 8",
	"__metadata": {
		"uri": "Mch1VbobMobSet(Matnr='Matnr%208',Werks='Werks%208')",
		"type": "ZQM_INSPLOT_SRV.Mch1VbobMob"
	}
}, {
	"Matnr": "Matnr 9",
	"Werks": "Werks 9",
	"Charg": "Charg 9",
	"__metadata": {
		"uri": "Mch1VbobMobSet(Matnr='Matnr%209',Werks='Werks%209')",
		"type": "ZQM_INSPLOT_SRV.Mch1VbobMob"
	}
}, {
	"Matnr": "Matnr 10",
	"Werks": "Werks 10",
	"Charg": "Charg 10",
	"__metadata": {
		"uri": "Mch1VbobMobSet(Matnr='Matnr%2010',Werks='Werks%2010')",
		"type": "ZQM_INSPLOT_SRV.Mch1VbobMob"
	}
}]